1. Wells - 1099 INV ok
2. Wells - 1099 Deposits ok
3. Citi - 1099 deposits - ok
4. Citi - 1099 INV- ok
5. Fidelity - 1099	- ok

6.Mph W2 ok
7. Quicken - 1098 ok

8.PHH Lenders - 1098 - ok

9.
** BB - 1098 ok paper - picture enclosed
** NJ Lenders - 1098 ok paper - picture enclosed
BB 1099 - INT ok - paper - picture enclosed